,Mean,Lower,Upper
Down-Up,1.924,1.547,2.242
Wave-Up,0.215,-0.024,0.472
Elongate-Up,0.778,0.514,1.084
Twist-Up,0.785,0.506,1.132
Down-Wave,1.708,1.444,1.924
Down-Elongate,1.146,0.917,1.375
Down-Twist,1.139,0.903,1.368
Elongate-Wave,0.562,0.312,0.811
Twist-Wave,0.569,0.326,0.807
Twist-Elongate,0.007,-0.188,0.271
