﻿Participant ID;Group;UHF;UHH;ULF;ULH;UNF;UNH;DHF;DHH;DLF;DLH;DNF;DNH;WHF;WHH;WLF;WLH;WNF;WNH;THF;THH;TLF;TLH;TNF;TNH;EHF;EHH;ELF;ELH;ENF;ENH
2;F;Happy and active emoji;Smirking emoji;Wild mit den Armen gestikulieren;Raising your hand;Glückliches und ruhiges emoji;Unsicherheit;Aufgeregtes Tier;Pointing downwards;Mit den Armen gestikulierende Figur;Abwartend trauriges emonji;Very sad emoji;Sad emoji;Erwartungsvoll;Krokodil;Beobachtende Schlange;Bedrohliche Schlange;Neugierige Schlange;Tier hebt den Kopf nach dem Aufwachen;Pulsating object;Pulsating object;Twirled Gummibears;/;Ausstrecken nach dem Aufstehen;Ausstrecken nach dem Aufwachen;Fröhlicher Wurm;Pulsierender wurm;Langsamer Wurm;Abwartender Wurm;Aus dem Versteck gucken;Unsicherheit
3;S;Im Takt von Musik mit-wippend;Stekundenzeiger;Streichelnde Handbewegung;/;Anspannung eines Arms oder Beins, bspw. Bei Fitnessübung;Zum Graz gehobene Hand;Daumen nach unten, es geht Bergab;Kopfschütteln, verneinend;Gleichgültig zuckende Schultern;Abtropfende Flüssigkeit;Vor Müdigkeit wegnickender Kopf;Müde zur Seite wegnickender Kopf;Bizeps-curls ;Sport- / Fitnessübung;Sportübung;Sportübung;Etwas schweres nach oben angeben;Entspannt Beine hoch legen;Schraube;Hinweisgeber Finger;/;Sich bewegendes Würmchen;Schraubenzieher / Schaue;Lustig drehender Wurm;Blinker, Hinweis;Blinker, Hinweis;/;Pendel, beruhigende Bewegung;Zurückhaltende Person, die sich nicht richtig vorwagt;/
4;S;Gegen etwas stroßen;Waving, Sprungbrett;Waving, raising arms, bridge opening;Heavy lifting, weight;Freude, arm heben, aufzeigen (Schule);Arm heben nach Impfung. Angestrengt, Gewichtheben;Trampolin, Arm locker baumeln lassen;Tastatur bedienen, tippen;Motivationsloch;Etwas verbiegen, Druck ausüben.;Fall, Aufrappeln, Sturz;Aufstehen, Rücken gerade machen;Triceps anspannen, Ruder Bewegung;Erstauen, Augenbraue heben;Strecken, Schulter zucken;Armdrücken, Gewichte;Anspannung;Schwere, Tragen, Schulter;Schlüssel drehen;Zeigen, Schalter drücken;Überstrecken, Schlüssel drehen;Vorsichtig berühren;Arm verdrehen;Schlüssel, Tür aufmachen;Blinker;Zeigen auf etwas, Deuten (Finger);Gecko, der mit seiner Zunge ein Insekt fängt.;Ausstrecken, Ruffy (One Piece), Insekt;Fechten, speer stich;Arm ausstreiche, Greifen, Rolltreppe Mundwinkel
5;L;Einladende Geste;/;Winken;Interaktives Lächeln;/;Leichtes lächeln;Kommunizieren des Unwohlsein;Händeschütteln;/;Schlechte laune;Gegenteil von Lächeln;/;Unterstützt;Beschäftigt sein;/;Leichtes Aufbäumen;/;Meme keine Ahnung / Schulterzucken;Sehr angespannt;Aufmerksam;/;/;Aufmerksam / sich nach jemandem umdrehen;Ausweichen / sich winden;Aufgeregt sein;Angespannt sein;Neutrale Stimmung;Ruhiger Puls / Herzschlag;Angespannt sein;Sich strecken
6;S;Freude;Freude / Freundlichkeit;s.o [-> Begrüßung (winken)];Freundliche Personen, die träge ist;/;Begrüßung (winken);Sekundenschlaf;JoJo;Emotion zwischen Traurigkeit und Gelassenheit;JoJo;Schlechte Laune / Trägheit;Schlechte Laune / Trägheit;Aufregung;Sport: sit-ups;Winken;Schlange;/;Winken;Schraubenzieher;s.o. [-> Schraubenzieher];Schraubenzieher;Entspannung;Lockenstab;An einen trägen Menschen;Pinocchio;Boxer;/;Aufzeigen in der Schule;Eine sich Streckende Person;/
7;M;Doing sport;Someone who is doing arm exercise;"A short stretch after 1 hour of sitting
it motivates me to do that [stretching]";Car wiper;Hand raising of the student who knows the answer and is proud of it;Like unconscious movements of body;Crying for losing someone;Someone who is probably thinking and she is doing some unconscious movement repetitively ;/;Someone who got sad as a result of for example hearing a mean comment about themselves;Saluting in army;/;Dancing in a funny way :);Raising eyebrow for someone (“hey you”);Inviting + dance;Raising eyebrow in a suspicious way;/;/;Dance movement;Being a bit happy and satisfied inside and you are warking. => Your body is unconsciously mvoing;"A shy person who wants to avoid things.
A little bit looks like being in pain";/;Like saying “here you are”;A quick way of saying “I don’t know”;A kind [sic] keeps poking his mom and says “mom … mom … mom … mom”;Car blinker (it’s time to do the movement);direction;"Who did it? “He …did it” (because of the initial slow movement)
You are in a car. The exit is in 200 meter. You should got ready to change your lane";"95% give me your hand (empathy)
5% direction";Showing direction for example to someone who is deft
8;M;Freundliche Begrüßung;/;Schüchternheit. Person die zurückhaltend ist.;Person die gelangweilt ist;Begrüßung. Handschlag;/;Gefühl hingefallen zu sein;Sinkendes Schiff;/;Gefühl der Schwäche;Erschöpfung. Müdigkeit;Traurigkeit. Kränkung;Freude über etwas;/;Unentschlossenheit;Langeweile;Zielgerichtete Bewegung. Entschlossenheit;Entspannung im Urlaub;Verwirrung;Ratlosigkeit gegenüber einem Thema / Sachverhalt;Verwirrung;Trägheit, Müdigkeit;Jemandem den Weg zeigen. Die Richtung weisen;Situation (egal welche), welche plötzlich beendet wird;Schlagendes Herz;Schlagendes Herz;Gefühl des Loslassens;Zug der langsam aus dem Bahnhof fährt;/;/
9;M;Hanteltraining, Siegerpose;Konstante Anspannung, keine komplette Entspannung;Andächtig, vorsichtige Siegerpose, zögerlich;Zögerlich, zart;Kleiderhaken, Knetmasse;"Zustimmung
Finger heben, im Sinne von aufzeigen / wie in der Schule";Sprungfeder, elastisch, hüpfen;Nicken, Zustimmen;Sich hängen lassen, Entspannung zulassen, zusammensacken;/;Kurve;Traurig, hängende Mundwinkel;Klimmzüge, kraftvoll;Kraftübung, kontrollierte Bewegung;Gartenschlauch (tanzend);Situps, langsames Atmen;Treppenstufe, S-Kurve, Schlangenlinie;Körperspannung, Treppenstufe;Zwirbeln von Haaren, Armbewegung beim Tai-Chi;Schubsen, stoßen;Drehende Spirale als Windspiel;Kickbox, drehen einer Schraube;"Etwas aus einer Tube presse
mit Bedacht";Angst, Vorsicht, Zögerlich;Aufgeregt hüpfen viel Bewegung;Herzschlag, pulsierend, aufgeregt;"Langsames Atmen mit Stoßatmung am Ende
Impuls am ende wirkt energetisch";T[h]eraband, den eines Gummibands;Vorstoßen (langsam), vorsichtig Interesse;gelangweilt
10;F;"Sich freuen; ein schönes Ereignis erleben";Ehrliches lächseln;Unter freunden ein Glas Wein trinken ;Man lernt jemanden nettes / neues kennen;“Aha” Erlebnis / es geht einem ein Licht auf;An einer Kreuzung stehen;Hunde winseln;"Blinkerrythmus
Unzufriedenheit";Streiten;Zum Abschied winken;Schulterzucken;Mundwinkel nach unten gezogen (Trauriger Smiley);Melden in der Schule / Unterricht;Blinkendes Fahrzeug;Mit einer Freundin / Freund quatschen;/;Plötzliche & unerwartete Reaktion, auf Ereignis, das man so nicht hat kommen sehen;Jagdhund, der seine Beute dem Herrchen/Frauchen anzeigt (“vorstehen”);"Aufgeregte Situation; abwartend";Freudige Situation, abwartend;Unschlüssig & abwartend;Entspannte Tasse Tee trinken und ein Buch lesen;Handtuch aus wringen / Etwas zudrehen, dass so nicht bleiben kann / Schraube anziehen;Jemanden abwürgen, mit dem man nicht reden möchte;Pulsschlag beim Sporttreiben;/;Schlange, die aus ihrem Erdloch schaut, aber nicht rauskommen möchte (verharrt);Jemanden umarmen;"Jemand sagt etwas, dem man nicht zustimmt
Spontane negative Reaktion auf etwas, das einem unsinnig vorkommt";Vogelkücken, das aus dem Nest sucht
11;M;winken;lächeln;Gewicht heben (Hantel);Fröhlich atmen;Faust anspannen;fröhlich;Beine baumeln lassen;Weinen;traurig;Traurig;Hängen lassen;Hängender Mundwinkel;Gewichtheben (Olympisch);Gewichtheben;Gewichtheben;Hanteln heben;Gewichtheber;Gabelstapler / Kran;Bart zwirbeln;/;Regenwurm;Atmung im Schlaf;Anspannung;/;Regenwurm;Herzschlag;Regenwurm;Atmung;Anspannung;Anspannung
12;M;Winken;Zorniges Winken;Dehnübung;Trauriges Winken;Erektion;Flagge hochhalten;Put on the back;Unterschwelliges Signalisieren mit der Hand;Mundwinkel runter ziehen;Im Wind wehen;Anti-Errektion;Bücken wegen Schmerzen;Hand schütteln;Hand schütteln in langsam;Liegestütz;Liegestütz mit wenig elan;Augenbraue runzeln (Stirn);Augenbraue hoch ziehen;Wieder Sport;/;Training (Sport);Sich winden;/;Schultern hoch ziehen;Wurm in schnell;Puls;Wurm;Schnecke;Wieder Strecken?;Aufstehen aus Bett (Strecken)
13;L;Man ruft den anderen zu sich;Man sagt höflich “hallo” aber will schnell weiter;Man sagt eerst nur Hallo, aber dann merkt man, dass man die andere Person kennt und freut sich;Gelangweiltes grüßen;Man hat lange gewartet und endlich ist der/die andere da;Man denkt man hat die Lösung gefunden und dann merkt man es ist doch falsch;Man lässt sich hängen, an am chillen;Man Kämpft mit seinen negativen Emotionen;Traurig, ratlos;Im Moment läuft es nicht gut;Traurig, träge;Man ist traurig;Erfreut den anderen zu sehen und winkt;Verabschieden;Winken;Vorsichtiges Ausschau halten;"Wieder Aufmerksam, Gefahr droht
Man versucht hochzuschauen
Schlange";Aufmerksam, Gefahr droht;"Man muss sehr dringen auf Toilette
Starkes klopfen";Nach Aufmerksamkeit suchen;Schraubenzieher;Kaum merkbar, schüchtern, änglicht;She erfreut den anderen zu sehen;Man ist gelangweilt;Kind nervt Eltern, da es i[rgend]was will;Nervös;Man denkt nach und findet so langsam eine Lösung;Langsames töten, hinterhältig;/;Will den anderen nicht treffen und drückt[?] ihn weg
14;L;Warnzeichen;Tänzerisch;Absperrung an Bahngleis;Lose Gegenstände auf einem Schiff;Auffahrunfall;Heimlich Herwinken;Der Versuch, nicht im im Bus einzuschlafen (plötzliches Hochschrecken);Man ist eingeschlafen (Atem);Nidergeschlagneheit, der Versuch, dies nach außen zu vermitteln und aufgefangen zu werden;Nidergeschlagenheit;Erschöpftes Zubettgehen;Erschöpfung;Neugierde;Schadenfreude;Neugierde, aber irgendwie heimlicher;Schüchterner Versuch der Annäherung;Magnete;Aufgeben, Loslassen, sich nicht mehr um etwas scheren.;Ungeduld;Man versucht motiviert zu sein, aber das gelingt nicht.;Angeregte Diskussion, Verzweifelter Versuch, seinem Gegenüber, etwas klarmachen, was dieser nicht begreifen will;Geheimnisvoll, wie ein Codewort;Überraschung;Verwirrung;Ehrgeiz. Ich muss an Stretch-Übungen denken;Aufregung über gute Neuigkeiten (aber nicht zu gute);Heimliche Tipps, “Verpetzen”;Sich davonschleichen;Schulduzweisung;Ungleichgewicht
15;L;/;/;/;/;/;/;/;/;/;Es dauert zwar länger dennoch wirkt es für mich auf etwas nicht sportives;Es erinnert mich an eine sehr schlechte Stimmung zum Beispiel bei einem Streit;/;/;/;Die Stimmung steigt langsam an positive zu werden, was für mich heißt, dass etwas Chores passiert ist, was aber di Stimmung nur langsam ändert;/;Es sieht zwar entspannt und positiv aus, dennoch nicht zu 100%;Daran, dass es zwischen positiv und negativ, sowie zwischen entspannt und stimuliert schwankt;/;/;/;/;/;/;/;Da es relativ gerade bleibt ist es für mich vor allem gleich viel;/;/;/;/
16;F;Sie erinnert ich an ein aufgeregtes Lächeln.;Die Bewegung erinnert mich an einen zucken der Mundwinkel. Könnte sein, dass diese noch eine positive Stimmung zeigt, kann aber sein, dass die Bewegung gleichzeitig Aufgeregtheit zeigt.;Sie erinnert mich an ein Lachen, weil die Bewegung nach oben geht und aber auch im Takt dieser Bewegung wiederholt. Das signalisiert für mich mehr dynamik;Die Bewegung erinnert mich an ein müdes Lächeln. Wegen dem Tempo sehe ich eine entspannte Stimmung. Da die Bewegung nach oben geht, sehe ich dennoch etwas positives darin.;An ein anhaltendes Lächeln;Sie erinnert mich eher an ein Lächeln oder eine lang anhaltende Welle;An einen traurigen smiley [Pfeil auf die nach unten gezogenen Mundwinkel eines Smileys] mit ein bisschen Wut drin;An einen traurigen Mundwinkel von einem Smiley. Er ist noch nicht wütend, aber vermittelt für mich Trauer, aufgrund der schnellen Bewegung. Ist noch kein Dauerzustand;Ein Mundwinkel von einem Smiley, welches eine negative Stimmung vermitteln möchte. Hat etwas von einem Alarm-Signal, welches sagt: “Achtung jemand wird gerade traurig oder wütend”.;An einen negativen Smiley Mundwinkel, welches nicht komplett wütend oder traurig sit, aber fast diesen Zustand erreicht;An einen Smiley Mundwinkel. Ein sehr trauriger Mundwinkel, welcher einen Dauerzustand vermittelt;An diesen Mundwinkel [Pfeil auf Zeichnung von Smiley mit Mundwinkel in nach unten geöffneter U-Form] nicht komplett nach unten gezeigt, sondern als Vorstufe zum total traurig sein;An einer Schlange, die sich mit ihrem Kopf fortbewegt;An einer Schlange, welche sich mit ihrem Kopf nach vorne bewegt;An eine sich schneller bewegende Schlange;An einer Schlange, oder an einen Pfeil, der mir eine Richtung aufzeigen möchte. => Vermittelt für mich eher ob jemand stimuliert oder entspannt, anstatt eine Emotion zu zeigen;An einer Schlange. Die Bewegung vermittelt für mich an etwas langanhaltendes, also auch an einen momentanen Stillstand der Emotion. Ich vermute er ist positiv;An einen zum Lachen angedeuteter Mundwinkel.;An An etwas Pochendes. Ein pochender Strich;Zeigt mir wieder einen Strich (oder Fossili [Fusilli]). Aber es vermittelt eher, ob etwas Stimuliert ist oder entspannt;An Fossili [Fusilli];An etwas “pochendes”. Ein pochendes Organ vielleicht.;An etwas “Gedrehtes” oder “Gezwirbeltes” hat etwas von einer Nudel. (Fossili [Fusilli]);An diesen Mundwinkel [Pfeil auf Zeichnung von smiley mit geradem Strich “–“ als Mund]. Weder Trauer noch Freude zu sehen. Eher Langeweile wieder oder komplett keine Reaktion;An einen Strich der sich nach vorne fortbewegen möchte. Kann aber auch dieser Mundwinkel [Pfeil auf Zeichnung von smiley mit geradem Strich “–“ als Mund]. Der zeigt vielleicht Langeweile;Wieder an einen Pfeil, Strich, Wurm, welche sich nach vorne bewegt. Diesmal ist die Bewegung schneller sprich man ist irgendwie aufgeregter;An einen sich bewegenden Regenwurm, der sich fortbewegen möchte. Kann aber auch ein Strich sein. Vermittelt für mich auch die Bewegung [?] an etwas neutrales;An einen geraden Strich, der immer langsamer sich ausbreitet. Habe den Eindruck, dass der Strich eine Müdigkeit mit dieser Bewegung vermitteln möchte.;An einen Strich, der sich verlängert. Vermittelt für mich eine Langanhaltende Stimmung, welche fur mich neutral ist.;An einen geraden Strich. Das vermittelt mir die Stimmung, dass weder Freude noch Aufregung in der Bewegung drin ist.
17;F;Exited Happy, Having a good time;"A Good mood
A Good day
Smiles";"A smile
A Greeting, Saying Hello";Uncertain or wondering or making a decision ;A smile;A question or uncertainty;A frown;A Bad mood or Bad Day;"Something sad Happened or you have a really bad day.
Frown";Tired, Depressed, exhausted and unhappy;Frown or Disagreement;"Frown more temporary though
Also a Disagreement";"Raising one eyebrow
Humor";"Neutral emotion
Shrug";"Agreeing
Shrug => Agreeing, going along with something";Looking around uncertainly not knowing where you have to go;Deciding what kind of pizza want;Uncertainty or thinking;"Slightly more nervous or anxious
Wringing hands";"Wringing hands 
Nervousness";"Nervous
Wringing hands";Boredome;Nervous or anxious;"Nervous / anxious
Wringing your hands";Turn Signal;Heartbeat;"Heartbeat
Turn Signal";Heartbeat;/;/
18;S;Winken, Begrüßen, Scheibenwischer vom Auto. Ich höre beinahe das Quietschgeräusch;Winken, Begrüßung;Sich über etwas freuen. Eine Neuigkeit hören (die positiv ist und dann langsam reagieren (nachdem es angekommen ist));Winken, etwas zögerliches Winken;Begrüßung, freundlich, Erkannt werden (Als wurde die Kette einen Bekannten / Freund begrüßen);Begrüßung, ein wenig Unsicherheit, als würde die Kette / eine Person glauben Sie würde jemanden wiederkenne, ist sich aber nicht ganz sicher, etwas schüchtern;"Daumen nach unten zeigen, etwas verärgert sein
Etwas nicht zustimmen, anderer Meinung sein aber das auch nicht zu Seher und die Nase reiben wollen";Ungeduld, wie mit dem Finger auf den Tisch tippen, oder mit dem Fuß auf den Boden;Klares und deutliches “Nein”, Keine Kompromisse, keine Widerrede;Meditation, Entspannungsübung. Ähnlich wie das wo ich Ungeduld gesagt habe [DHH], jedoch diesmal so als würde man versuchen sich zu beruhigen und die Ungeduld zu bekämpfen;“Nö”, sturr, mürrisch, klipp & klar;Erst etwas nicht mögen / widersprechen wollen, dies aber überdenken und seinen “Unwillen” zurück ziehen;Tanzen, diese komische Bewegung wo man eine Welle mit den Armen macht, ein bisschen ulkig, humorvoll, rumblödeln;Wieder tanzend, ulkig, humorvoll “Welle” aber diesmal so asl wär es eine blöde Situation und der Träger versucht jemanden aufzumuntern, zögerlich als vorher;Jubel, Reaktion nachdem z.B. Sportmannschaft gewonnen hat oder ähnliches (Der träger ist Zuschauer);Mit den Schultern zucken, Gleichgültigkeit;“Hitlergruß” (sorry aber das ist wirklich die erste Assoziation;Man will tanzen aber jemand verdirbt einem die Stimmung;Ungeduld aber etwas positiver als vorher. Man wartet auf eine Antwort, ist aber nicht missgestimmt;Herzschlag;Bohrmaschine, in der Nase popeln, Nutella auslöffeln aber diesmal energischer;In der Nase popeln, irgendwas ausschaben, die letzten Reste der Nutella ergattern;Bohrmaschine, nochmal nachhaken, jemanden provozieren wollen, seine Grenzen austesten;Bohrmaschine, verwirrt sein, irgendwo noch mal nachhaken;Jubeln / Klatsche oder wieder schelmisch, liebevoll ärgern aber energischer;Bisschen unauffällig zum Beat mittippen. Man ist z.B. zu schüchtern um zu tanzen oder es ist unpassend aber man will Erz. Bewegungen ausstrahlen z.B. im Bus mit Kopfhörern;Ekelnd, als würde man mit einem Stock eine Spinne antippen um zu gucken ob sie noch lebt, etwas ängstlich;"Jemanden bisschen nerven wollen und wiederholt anstupsen
Liebevoll aber auch etwas schlemisch (Ähnlich wie kitzeln nur nicht so dramatisch)";"“Anstupsen” wieder Frage stellen - Antwort hören - Abschließen
Zwischendurch muss auf jeden Fall etwas verarbeitet werden (die Antwort?) so wie vorher auch. Vielleicht diesmal etwas energischer / neugieriger? Also die Antwort interessiert einen mehr als letztes Mal";"Neugierde, Frage – Antwort hören – mental abschließen / Antwort verarbeiten
Irgendwie süß, vielleicht etwas schüchtern / verunsichert"
19;L;Winken;Krafttraining;Blinker;Scheibenwischer;Neue Form;Weichnachts Lolli Stick (rot-weiß);Abwärts;Tropfendes Wasser;Schmelzende Schokolade;Es geht bergab;Imbusschlüssel;Gewehr;Vogelstrauß;Sit-Ups;Klappbrücke;Brücke;Ausguck;Welle;Achterbahnkurve;Rhythmus;Stahlkonstruktion;/;Überdreht;Kunstschmiede;An Nr. T2 [-> “Bart”];An Nr T1 [ -> “/“];Fruchtgummiwurm;Zeitlupe;/;Schnecke
20;L;Ausdruck “ja”;Ausdruck “mehr”;Ausdruck “super”;Schwierige Unterscheidung zu vorhergehenden, ähnlichen Bewegungsformen. Wahrscheinlichste Deutung: “mehr”;Ausdruck “richtig”;Ausdruck “weiter”;Ausdruck “nein”;Ausdruck “nein”;Ausdruck “nein”;Ausdruck “das mag ich nicht”;“Das finde ich sehr schlecht” -> stark negativer Ausdruck;“Schade”;Hallo -> Begrüßung;Winken;Winken mit etwas schlierigerer Erkennbarkeit;Winken -> “hallo”;Hoch / anheben mit stärkerem Ausdruck;Anheben;An eine Sinnbild für eine komplizierte Situation “es ist kompliziert”;Wie vorhergehend [-> An eine Sinnbild für eine komplizierte Situation “es ist kompliziert”];/;Ausdruck: “leiht schwierig” oder “weiß nicht”;Nachfrage “was?” / “was genau?”;Unklare Aussage bzw. keine deutliche Ausdruckserkennung => Keine Schlussfolgerung über einen möglichen Ausdruck;Schneller;“Weiter”;“weiter’;Ausdruck “mehr”;Richtungshinweis “dort”;“Start”
21;S;Eine grinsende fröhlich aufgedrehte Person;Eine Person, die mit einem neutralen Winken auf sich aufmerksam macht;/;Bewegung von haaren oder Stoff in einem sehr ruhigen entspannten Wind;Für einen kurzen Augenblick volle Aufmerksamkeit;Neutraler Gesichtsausdruck;Ungeduld oder genervt sein;Beginnende Abneigung oder schlechte Laune;Müde, fix und fertig von der Arbeit;Müde Kopf hängen lassen, da man fast einschläft, jedoch kurzzeitig schaut man immer wieder auf;/;Eine Person, die nach unten schaut;Gut gelauntes Winken;Unsicherheit, als ob man m it einem Finger die Speisekarte rauf und runter wandert und keine Entscheidung treffen kann;/;Sehr ruhiges entspanntes Atmen;Ein etwas enthusiastischeres Winken als bei 8. [WNF];Eine winkdingende Hand;Entspannte, gut gelaunte Atmung;Flache Atmung;/;Langsame, entspannte Bewegungen;Kurze Entspannung, wie bei z.B. Krafttraining;Eine müde Person die kurz aufschaut und dann den Kopf wieder hinlegt;Eine Hand, die jemanden antippt um Aufmerksamkeit zu erhalten;Gelangweiltes Atmen;An das Strecken des Körpers Entspannung;Ruhige Atmung einer schlafenden, nicht aufmerksamen Person;Eine person, die schlagartig aufhört zu Lächeln nachdem man eine unliebsame Sache gesagt hat;Eine person, die kurz nach etwas sieht aufgrund eine Geräusches, jedoch nach kurzer Zeit wieder weg sieht
22;F;Winken;Winken, etwas verhalten;Blinken;Welle | Wogen;Ein Igel, der die Stacheln hochstellt;Hier bin ich;Es geht bergab;Mach mal langsam;Es geht nicht gut;Es wird ruhiger;Umgekipptes Glas, etwas ausgelaufen;Schlaf, müde;Schwanz einer Katze;Wippe;Winken;Atmung | Blasebalg;Ein sich öffnendes Tor;Zugbrücke;Energisches bohren, herantasten;Vorsichtiges herantasten;Bohrer, bohren;Wie ein vorsichtiges herantasten;So kann es gehen;Es geht voran ;läuft;Alles im Fluss;Herzschlag;Vorsichtiges Herantasten;Breit machen, geh weg;Eine Schnecke, die aus ihrem Haus kommt
23;S;Zwar Glücklich jedoch Stress im Alltag;Im Schnitt entspannt und positiv jedoch ab und noch unentschlossen;Nette Person und Spas, Freude am Leben alles ist in Ordnung;Durchaus sehr glücklich mit der Situation;Sehr Glücklich;Freundliche und friedliche gute Stimmung;Wütend nicht sehr gut gelaunt;Entweder schlechte Laune / Gute aber eher mittlere Laune;/;Traurige Person die es versucht zu überspielen;traurig;Traurige Person;An eine Arm Bewegung;/;z.B. fur ein Foto ein kurzes Lachen aufsetzen;So eine aufgesetzte gut Stimmung / wo eigentlich keine ist;/;Leicht angewinkelten Mundwinkel. Doch nicht ganz so Glücklich;/;Herzschlag / da sehr langsam / sehr entspannt;/;Ruhige Stimmung;Hektische Bewegung;Eine entspannte Bewegung. ausgeglichen Person;Sehr schnelle Bewegung/ Stress im Alltag;Angespannt;/;Normale Alltagssituation von der Mimik;Weit strecken für etwas;Muskeldehnung
24;M;/;Bewegung ist schneller -> Weniger entspannt;Lächeln;Lächeln;Lächelnder Smiley. Keine schnelle Bewegung -> entspannt;Lächelnder Smiley;Trauriger Smiley;Trauriger Smiley;Trauriger Smiley;Trauriger Smiley. Weniger schnelle Bewegung -> Entspannte Stimmung;Trauriger Smiley Aufgrund der längeren Positionsverweilung entspannte Stimmung;Trauriger Smiley. Längere Positionsverweilung -> Entspannter;/;Anheben der Augenbrauen;Anheben der Augenbraun -> Skepsis. Schnellere Bewegung -> Eher Stimulierend;Anheben der Augenbraun -> Skeptisch;Anheben der Augenbrauen. Mehr entspannte Stimmung aufgrund der langsameren Bewegung;Anheben der Augenbrauen;Verdrehen erinnert an Verkrampfen. Schnellere Bewegung erinnert an schnell schlagenden Puls ->Weniger entspannt;Verkrampfen. Hektisch aufgrund der schnelleren Bewegung;Verkrampfen. Schnelle Bewegung -> hektisch;Verdrehung erinner an Verkrampfung;Verdrehung erinnert an Verkrampfung. Keine schnellen Bewegungen -> entspannte Stimmung;Verdrehung erinnert an Verkrampfung;Abstoßen / Wegstoßen. Schnell Bewegung -> Hektisch;Abstoßen/Wegstoßen Schnelle Bewegung -> mehr stimulierende Stimmung;Als ob man etwas abstoßen/wegstoßen möchte;Abstoßen. Bewegung nicht zu schnell -> Mehr entspanntere Stimmung;So als ob man etwas wegstoßen/abstoßen möchte;Bewegung kommt einem so vor, als ob man etwas wegstoßen möchte
25;F;Finds something funny, laughing;Looks like someone signaling me to come over like the hand gesture;Content and happy, like they just ate cake;Generally happy person. Good mood.;Happy person. Content;Happy Person. Looks like a smile;Person is mad! Grr. (Proband hat smiley mit Mundwinkeln nach unten gezeichnet. Smiley hat außerdem Augenbrauen in “ \ / ”-Stellung -> Böser blick);Person dislikes something;Person wants me to know that they don’t like something;Person is kind of unsure, but is not liking something;Grrr. Person is irritated;Person doesn’t like something at all. Looks like the mouth of an irritated person. (Proband hat smiley mit Mundwinkeln nach unten gezeichnet. Smiley hat außerdem Augenbrauen in “\ /”-Stellung -> Böser blick);Happy, energetic;Attention Someone raising their arm in class;Person finds something funny maybe? Laughing?;Peros might have a question;Confused but happy;Confused. Shy maybe?;Person falls asleep soon;Bit sad but ok;Tired person just wants to go to bed;Breathing motion, very relaxed, no emotion;Someone wants me to look at something;/;Energetic Person;/;Breathing motion, relaxed breathing;Shy?;Active disinterest;/